<svg width="376" height="171" viewBox="0 0 376 171" fill="none" xmlns="http://www.w3.org/2000/svg">
<g clip-path="url(#clip0_415:3528)">
<path d="M11.0239 99.6319C10.7701 99.5728 10.5186 99.5057 10.2695 99.4307C9.77417 99.2824 9.2873 99.1073 8.81096 98.9062C8.57146 98.8056 8.33192 98.6978 8.10439 98.5853C7.17155 98.1259 6.28869 97.5713 5.46989 96.9303C3.77609 95.594 2.35139 93.9482 1.27146 92.0805C-0.487891 89.0283 -1.40449 85.5635 -1.38456 82.0407V82.0407C-1.38456 81.5928 -1.36541 81.1497 -1.33667 80.709C-1.33667 80.6492 -1.33666 80.5917 -1.32468 80.5318C-1.29115 80.0863 -1.24808 79.6432 -1.18581 79.2074C-1.10438 78.6038 -0.996586 78.0115 -0.862466 77.4303V77.3991C-0.735531 76.8387 -0.582274 76.2903 -0.40744 75.7538C-0.390675 75.6987 -0.369066 75.646 -0.352301 75.5909C-0.203811 75.1455 -0.0433461 74.7095 0.126699 74.2832C0.127737 74.2777 0.127737 74.272 0.126699 74.2665C0.306324 73.8402 0.502697 73.4235 0.708667 73.0139C0.735012 72.9612 0.761319 72.9037 0.790059 72.8486C0.991239 72.4638 1.20363 72.0878 1.42717 71.7206L1.54931 71.5242C1.77444 71.1649 2.01394 70.8153 2.26781 70.4752C2.31811 70.4034 2.37077 70.3363 2.42346 70.2668C2.57674 70.0632 2.73481 69.8645 2.90246 69.6681L3.06531 69.4717C3.28086 69.2155 3.5036 68.9663 3.73352 68.7268C3.97302 68.4873 4.1958 68.2646 4.4329 68.0419L4.58136 67.9102C4.7993 67.7138 5.02205 67.5222 5.24957 67.3377L5.34055 67.2635C5.63274 67.032 5.93138 66.8117 6.23634 66.6025L6.35369 66.5259C6.64349 66.3319 6.93806 66.1474 7.23743 65.975L7.31169 65.9319C7.62783 65.7523 7.95116 65.587 8.26969 65.4313L8.43733 65.3571C8.74628 65.2158 9.05761 65.0841 9.37375 64.9667L9.45041 64.9379C9.78571 64.8158 10.1234 64.6985 10.4659 64.6123L10.6838 64.5548C11.0119 64.4686 11.3425 64.3919 11.6778 64.3321L11.74 64.3177C12.0873 64.2554 12.4418 64.2123 12.7962 64.1764L13.0501 64.1548C13.4093 64.1261 13.7686 64.1045 14.1374 64.1045H5.16572C4.79929 64.1045 4.44727 64.1261 4.07844 64.1548L3.82456 64.1764C3.46771 64.2123 3.10602 64.2554 2.76833 64.3177L2.70372 64.3321C2.37002 64.3943 2.03947 64.4686 1.71216 64.5548L1.49423 64.6147C1.15175 64.7105 0.814056 64.8158 0.478756 64.9379L0.4021 64.9667C0.0859604 65.0841 -0.225368 65.2062 -0.534323 65.3571L-0.70202 65.4313C-1.03013 65.587 -1.35106 65.7523 -1.66002 65.9319C-1.68557 65.9449 -1.71031 65.9592 -1.73422 65.975C-2.03359 66.1474 -2.33062 66.3319 -2.62042 66.5259L-2.73537 66.6025C-3.04193 66.8101 -3.3413 67.0304 -3.63349 67.2635L-3.65981 67.2827L-3.72208 67.3377C-3.96158 67.5222 -4.17235 67.7138 -4.39269 67.9102L-4.53641 68.0419C-4.77591 68.2646 -5.0154 68.4921 -5.24053 68.7292C-5.48003 68.9687 -5.69319 69.2083 -5.90874 69.4741L-6.07159 69.6705C-6.23445 69.8669 -6.39012 70.0656 -6.55059 70.2692C-6.58651 70.3147 -6.62482 70.3578 -6.65835 70.4057C-6.69188 70.4536 -6.68947 70.4537 -6.70624 70.4776C-6.95532 70.8177 -7.19482 71.1673 -7.42474 71.5266L-7.54688 71.723C-7.76882 72.0902 -7.98121 72.467 -8.18399 72.8534C-8.21273 72.9061 -8.23904 72.9612 -8.26538 73.0163C-8.47135 73.4259 -8.66778 73.8426 -8.84741 74.2689C-8.84741 74.2689 -8.84741 74.2689 -8.84741 74.2832C-9.02464 74.7095 -9.1851 75.1478 -9.32641 75.5933C-9.32641 75.6316 -9.35513 75.6676 -9.3671 75.7059C-9.37299 75.7223 -9.37781 75.7391 -9.38149 75.7562C-9.55553 76.2927 -9.70718 76.8411 -9.83651 77.4015C-9.83737 77.4119 -9.83737 77.4223 -9.83651 77.4327C-10.0717 78.4569 -10.2262 79.4979 -10.2987 80.5462C-10.2987 80.6061 -10.2987 80.6635 -10.2987 80.7234C-10.3275 81.1641 -10.3467 81.6096 -10.3467 82.0574C-10.3467 87.0151 -8.60791 91.5057 -5.79618 94.7509C-4.75941 95.9548 -3.54853 96.9969 -2.20369 97.8428C-1.10785 98.535 0.0775188 99.0741 1.3194 99.4451C2.58099 99.8203 3.89028 100.011 5.20648 100.01H14.1973C13.6658 100.011 13.1348 99.9795 12.607 99.9169C12.074 99.8541 11.5454 99.7589 11.0239 99.6319V99.6319Z" fill="#231F20"/>
<path d="M13.8117 64.0947C22.5917 64.0947 29.7073 72.1347 29.7073 82.0572C29.7073 91.9797 22.5917 100.02 13.8117 100.02C5.03163 100.02 -2.08154 91.9797 -2.08154 82.0572C-2.08154 72.1347 5.02684 64.0947 13.8117 64.0947Z" fill="#939598"/>
<path d="M14.1567 64.0947C22.7428 64.0947 29.7027 72.1347 29.7027 82.0572C29.7027 91.9797 22.7428 100.02 14.1567 100.02C5.57068 100.02 -1.38916 91.9797 -1.38916 82.0572C-1.38916 72.1347 5.56829 64.0947 14.1567 64.0947Z" fill="black"/>
<path d="M73.0063 77.4136H4.28906V86.7014H73.0063V77.4136Z" fill="black"/>
<path d="M38.6478 90.8928C42.9387 90.8928 46.4171 87.4143 46.4171 83.1234C46.4171 78.8325 42.9387 75.354 38.6478 75.354C34.3569 75.354 30.8784 78.8325 30.8784 83.1234C30.8784 87.4143 34.3569 90.8928 38.6478 90.8928Z" fill="black"/>
<path d="M-111.837 49.4351H99.1863V73.4761C99.1863 76.1636 98.1187 78.741 96.2183 80.6414C94.318 82.5417 91.7405 83.6093 89.053 83.6093H-126.082C-128.386 83.6093 -130.596 82.6941 -132.225 81.065C-133.854 79.436 -134.769 77.2265 -134.769 74.9227V72.3648C-134.768 66.2832 -132.352 60.451 -128.052 56.1509C-123.751 51.8508 -117.918 49.4351 -111.837 49.4351V49.4351Z" fill="black"/>
<path d="M56.5843 82.0455C56.5843 72.135 63.5297 64.083 72.1302 64.083H63.1489C54.5605 64.083 47.603 72.123 47.603 82.0455C47.603 91.968 54.5485 100.008 63.1489 100.008H72.1398C63.5417 100.001 56.5843 91.968 56.5843 82.0455Z" fill="black"/>
<path d="M71.7707 64.0947C80.5507 64.0947 87.6663 72.1347 87.6663 82.0572C87.6663 91.9797 80.5507 100.02 71.7707 100.02C62.9906 100.02 55.8774 91.9797 55.8774 82.0572C55.8774 72.1347 63.0002 64.0947 71.7707 64.0947Z" fill="#939598"/>
<path d="M72.1299 64.0947C80.7184 64.0947 87.6758 72.1347 87.6758 82.0572C87.6758 91.9797 80.7303 100.02 72.1299 100.02C63.5295 100.02 56.584 91.9797 56.584 82.0572C56.584 72.1347 63.5414 64.0947 72.1299 64.0947Z" fill="#414042"/>
<path d="M72.13 68.6958C78.5175 68.6958 83.6907 74.6833 83.6907 82.0479C83.6907 89.4125 78.5175 95.4 72.13 95.4C65.7425 95.4 60.5693 89.4125 60.5693 82.0479C60.5693 74.6833 65.7425 68.6958 72.13 68.6958Z" fill="#231F20"/>
<g style="mix-blend-mode:multiply">
<g style="mix-blend-mode:multiply">
<path d="M72.1299 70.6523C77.5857 70.6523 82.0069 75.7608 82.0069 82.0597C82.0069 88.3585 77.5857 93.4671 72.1299 93.4671C66.6741 93.4671 62.2529 88.3585 62.2529 82.0597C62.2529 75.7608 66.6741 70.6523 72.1299 70.6523Z" fill="black"/>
</g>
</g>
<path d="M72.13 69.3184C66.0371 69.3184 61.0986 75.0233 61.0986 82.0574C61.0986 89.0915 66.0371 94.7964 72.13 94.7964C78.2229 94.7964 83.1614 89.0939 83.1614 82.0574C83.1614 75.0209 78.2229 69.3184 72.13 69.3184ZM73.8257 83.3339L81.8249 85.8175C81.3811 87.3651 80.6374 88.8104 79.6359 90.071L73.8257 83.3339ZM79.7724 74.2185C80.7553 75.5026 81.4763 76.9674 81.8944 78.5295L73.9263 80.994L79.7724 74.2185ZM74.3598 70.5302L72.2354 79.7175L70.0991 70.4752C70.7648 70.3189 71.4461 70.2386 72.13 70.2357C72.8827 70.2397 73.6319 70.3387 74.3598 70.5302V70.5302ZM64.4876 89.8962C63.5056 88.6115 62.7847 87.147 62.3656 85.5852L70.329 83.1136L64.4876 89.8962ZM62.4351 78.2996C62.8793 76.7522 63.6231 75.307 64.6241 74.0461L70.4343 80.7832L62.4351 78.2996ZM69.9002 93.5845L72.0246 84.3973L74.1658 93.6444C72.7616 93.975 71.2978 93.9561 69.9026 93.5893L69.9002 93.5845Z" fill="#E6E7E8"/>
<g style="mix-blend-mode:multiply">
<path d="M72.13 81.6481C75.6066 81.6176 79.0513 82.3126 82.2441 83.6886C82.3137 83.1445 82.3504 82.5966 82.3542 82.0481C82.3542 75.5289 77.7774 70.2407 72.13 70.2407C66.4826 70.2407 61.9058 75.5289 61.9058 82.0481C61.9095 82.5966 61.9463 83.1445 62.0159 83.6886C65.2087 82.3126 68.6534 81.6176 72.13 81.6481V81.6481Z" fill="#D1D3D4"/>
</g>
<path d="M72.142 69.3184C66.0539 69.3184 61.125 75.0209 61.125 82.0502C61.125 89.0795 66.0563 94.7844 72.142 94.7844C78.2277 94.7844 83.159 89.0819 83.159 82.0502C83.159 75.0185 78.2373 69.3184 72.142 69.3184ZM72.142 93.8887C66.4826 93.8887 61.8962 88.5885 61.8962 82.0502C61.8962 75.5119 66.4826 70.2141 72.142 70.2141C77.8014 70.2141 82.3854 75.5143 82.3854 82.0502C82.3854 88.5862 77.8014 93.8839 72.142 93.8839V93.8887Z" fill="white"/>
<g style="mix-blend-mode:multiply">
<g style="mix-blend-mode:multiply">
<path d="M70.6905 78.1538C72.5538 78.1538 74.0627 79.8974 74.0627 82.0481C74.0627 84.1988 72.5538 89.3935 70.6905 89.3935C68.8272 89.3935 67.3184 84.1988 67.3184 82.0481C67.3184 79.8974 68.8272 78.1538 70.6905 78.1538Z" fill="#939598"/>
</g>
</g>
<path d="M70.6905 78.1538C72.5538 78.1538 74.0627 79.8974 74.0627 82.0481C74.0627 84.1988 72.5538 85.9423 70.6905 85.9423C68.8272 85.9423 67.3184 84.1988 67.3184 82.0481C67.3184 79.8974 68.8272 78.1538 70.6905 78.1538Z" fill="black"/>
<path d="M72.13 78.1538C73.9933 78.1538 75.5022 79.8974 75.5022 82.0481C75.5022 84.1988 73.9933 85.9423 72.13 85.9423C70.2667 85.9423 68.7578 84.1988 68.7578 82.0481C68.7578 79.8974 70.2667 78.1538 72.13 78.1538Z" fill="white"/>
<path d="M42.2021 76.8242H37.2085V85.5755H42.2021V76.8242Z" fill="black"/>
<path d="M-21.6484 80.0599H52.084V85.5684H-16.9949C-18.2291 85.5684 -19.4128 85.0781 -20.2855 84.2054C-21.1582 83.3328 -21.6484 82.1491 -21.6484 80.915V80.0527V80.0599Z" fill="#BCBEC0"/>
<path d="M43.8283 82.8167H-6.80439C-7.1664 82.8167 -7.52483 82.7454 -7.85928 82.6068C-8.19373 82.4683 -8.49762 82.2652 -8.7536 82.0093C-9.00958 81.7533 -9.21265 81.4494 -9.35118 81.1149C-9.48971 80.7805 -9.56104 80.4221 -9.56104 80.0601H46.5849C46.5849 80.4221 46.5136 80.7805 46.3751 81.1149C46.2365 81.4494 46.0335 81.7533 45.7775 82.0093C45.5215 82.2652 45.2176 82.4683 44.8832 82.6068C44.5487 82.7454 44.1903 82.8167 43.8283 82.8167V82.8167Z" fill="#808285"/>
<path d="M39.4382 82.8167H-6.80439C-7.1664 82.8167 -7.52483 82.7454 -7.85928 82.6068C-8.19373 82.4683 -8.49762 82.2652 -8.7536 82.0093C-9.00958 81.7533 -9.21265 81.4494 -9.35118 81.1149C-9.48971 80.7805 -9.56104 80.4221 -9.56104 80.0601H42.2021C42.2021 80.4227 42.1305 80.7817 41.9915 81.1166C41.8525 81.4516 41.6489 81.7558 41.3921 82.0118C41.1354 82.2679 40.8306 82.4708 40.4953 82.6089C40.1601 82.747 39.8009 82.8176 39.4382 82.8167V82.8167Z" fill="#58595B"/>
<path d="M35.5847 82.8168H-4.94824C-4.94761 82.3878 -4.77672 81.9766 -4.47316 81.6735C-4.1696 81.3704 -3.7582 81.2002 -3.32922 81.2002H33.9657C34.1782 81.1999 34.3886 81.2415 34.5851 81.3226C34.7815 81.4037 34.96 81.5227 35.1104 81.6728C35.2607 81.823 35.38 82.0013 35.4614 82.1976C35.5428 82.3939 35.5847 82.6043 35.5847 82.8168V82.8168Z" fill="black"/>
<path d="M-32.7039 8.50955C-24.1945 5.99002 12.9735 7.13962 16.6761 8.50955C17.9958 8.98855 19.9238 11.4602 22.1391 17.1004H24.0144C21.2746 9.97287 18.8652 7.01746 17.2941 6.49775C13.4884 5.23559 -24.719 4.1746 -33.4679 6.49775C-35.6761 7.08452 -40.205 9.92976 -47.3589 17.1004H-43.5269C-38.1046 11.4458 -34.5672 9.0604 -32.7039 8.50955Z" fill="black"/>
<path d="M93.158 45.9836C93.158 34.7726 91.8958 13.3302 82.6774 11.6561C65.1604 8.47318 -37.2616 9.48627 -49.4617 11.807C-54.0122 12.674 -65.6017 18.4531 -85.6574 35.8456C-95.4769 36.976 -127.936 43.5503 -133.014 50.7448C-136.427 55.5803 -138.522 60.5644 -138.093 66.5183C-138.284 66.5177 -138.473 66.5579 -138.647 66.6363C-138.821 66.7147 -138.977 66.8295 -139.103 66.9728C-139.229 67.1162 -139.323 67.2849 -139.379 67.4676C-139.434 67.6502 -139.45 67.8427 -139.425 68.032C-139.006 70.8177 -138.188 73.5286 -136.996 76.0815C-136.64 76.8738 -136.062 77.5464 -135.333 78.0188C-134.603 78.4911 -133.753 78.7432 -132.884 78.7448H-65.1873V49.9665H93.3903C93.2777 47.5451 93.158 45.9836 93.158 45.9836Z" fill="#EE2A7B"/>
<path d="M26.5818 8.50955C35.0912 5.99002 72.2568 7.13962 75.9594 8.50955C77.2791 8.98855 79.2071 11.4602 81.4224 17.1004H83.2977C80.5602 9.97287 78.1509 7.01746 76.5798 6.49775C72.7741 5.23559 34.5643 4.1746 25.8177 6.49775C23.6072 7.08452 19.0782 9.92976 11.9268 17.1004H15.7588C21.181 11.4458 24.7233 9.0604 26.5818 8.50955Z" fill="black"/>
<path d="M100.959 42.6475C94.1067 20.2639 87.2282 12.6789 83.5806 11.8119C78.2733 10.5521 24.9894 9.49115 12.7893 11.8119C8.23879 12.6789 -3.35298 18.458 -23.4087 35.8505C-33.2282 36.9809 -65.6876 43.5552 -70.765 50.7498C-75.8424 57.9443 -78.0338 65.5102 -73.251 76.096C-72.894 76.8865 -72.3167 77.5573 -71.5882 78.0279C-70.8597 78.4986 -70.0109 78.7492 -69.1436 78.7497H-62.543C-62.543 65.3761 -51.3056 54.5339 -39.994 54.5339C-28.6825 54.5339 -19.5144 65.3761 -19.5144 78.7497H50.3716C50.3716 65.3761 61.6113 54.5339 72.9229 54.5339C84.2345 54.5339 93.4001 65.3761 93.4001 78.7497H96.9184C103.303 76.2613 100.959 42.6475 100.959 42.6475Z" fill="#B3205C"/>
<path d="M9.9293 42.6475H100.958C94.1063 20.2639 87.2279 12.6789 83.5803 11.8119C78.273 10.5521 24.989 9.49115 12.7889 11.8119C8.23842 12.6789 -3.35334 18.458 -23.4091 35.8505C-33.2285 36.9809 -65.6879 43.5552 -70.7653 50.7498C-72.9208 53.7914 -74.5303 56.8978 -75.3374 60.2603C-65.1156 49.5763 -41.9607 42.6475 9.9293 42.6475Z" fill="#F15595"/>
<g style="mix-blend-mode:multiply">
<path d="M101.043 66.5232H93.7618C89.7837 56.1097 81.0299 48.8721 70.856 48.8721C64.0709 48.8721 57.923 52.0957 53.3989 57.3312C50.1177 61.1296 45.2559 63.1918 40.2264 63.1918H-11.4361C-16.4656 63.1918 -21.3203 61.1296 -24.6086 57.3312C-29.1327 52.0957 -35.2807 48.8721 -42.0634 48.8721C-52.2373 48.8721 -60.9838 56.1097 -64.9715 66.5232H-75.9142C-76.1052 66.5226 -76.2941 66.5628 -76.4682 66.6412C-76.6423 66.7196 -76.7976 66.8343 -76.9237 66.9777C-77.0499 67.1211 -77.1438 67.2897 -77.1994 67.4724C-77.2549 67.6551 -77.2708 67.8475 -77.2459 68.0368C-76.8264 70.8226 -76.0085 73.5335 -74.8174 76.0864C-74.4605 76.8787 -73.8828 77.5513 -73.1534 78.0236C-72.4241 78.496 -71.574 78.7481 -70.7051 78.7497H-62.5478C-62.5478 65.376 -53.3797 54.5338 -42.0682 54.5338C-30.7566 54.5338 -21.5909 65.376 -21.5909 78.7497H50.3668C50.3668 65.376 59.5372 54.5338 70.8464 54.5338C82.1556 54.5338 91.326 65.376 91.326 78.7497H98.4895C100.765 77.8635 101.926 73.4471 102.484 68.1302C102.506 67.9278 102.485 67.7232 102.422 67.5296C102.359 67.336 102.257 67.1576 102.121 67.0061C101.985 66.8546 101.819 66.7334 101.633 66.6502C101.447 66.567 101.246 66.5237 101.043 66.5232V66.5232Z" fill="#A7A9AC"/>
</g>
<path d="M93.7618 66.5232C89.7838 56.1097 81.03 48.8721 70.8561 48.8721C60.6821 48.8721 51.9356 56.1097 47.9503 66.5232H-19.1527C-23.1332 56.1097 -31.8869 48.8721 -42.0585 48.8721C-52.23 48.8721 -60.9789 56.1097 -64.9666 66.5232H-75.9094C-76.1003 66.5226 -76.2892 66.5628 -76.4633 66.6412C-76.6374 66.7196 -76.7927 66.8343 -76.9189 66.9777C-77.045 67.1211 -77.1389 67.2897 -77.1945 67.4724C-77.2501 67.6551 -77.2659 67.8475 -77.241 68.0368C-76.8218 70.8227 -76.0039 73.5336 -74.8125 76.0864C-74.4556 76.8787 -73.8779 77.5513 -73.1485 78.0236C-72.4192 78.496 -71.5692 78.7481 -70.7003 78.7497H-60.6724C-60.6724 65.376 -51.5043 54.5338 -40.1928 54.5338C-28.8812 54.5338 -21.5956 65.376 -21.5956 78.7497H52.1871C52.1871 65.376 61.3551 54.5338 72.6667 54.5338C83.9783 54.5338 91.3213 65.376 91.3213 78.7497H98.4848C100.76 77.8635 101.922 73.4471 102.48 68.1302C102.501 67.9282 102.48 67.724 102.418 67.5307C102.355 67.3374 102.253 67.1593 102.118 67.0079C101.982 66.8565 101.817 66.7351 101.631 66.6517C101.446 66.5682 101.246 66.5244 101.043 66.5232H93.7618Z" fill="#939598"/>
<path d="M70.8557 48.8721C60.6817 48.8721 51.9352 56.1097 47.9499 66.5232H-19.1507C-19.1387 66.5495 -19.1244 66.5783 -19.1124 66.607C-18.9048 67.0489 -18.576 67.4227 -18.1644 67.6851C-17.7527 67.9476 -17.275 68.0878 -16.7869 68.0895H50.0336C54.0236 58.3155 60.2842 51.0132 70.4821 51.0132C82.8235 51.0132 86.3657 55.1566 90.9832 60.9213C86.3801 53.607 79.0825 48.8721 70.8557 48.8721ZM-42.0589 48.8721C-52.2328 48.8721 -60.9793 56.1097 -64.967 66.5232H-138.096C-138.287 66.5226 -138.476 66.5628 -138.65 66.6412C-138.824 66.7196 -138.979 66.8343 -139.105 66.9777C-139.231 67.1211 -139.325 67.2897 -139.381 67.4724C-139.437 67.6551 -139.452 67.8475 -139.428 68.0368C-139.008 70.8226 -138.19 73.5335 -136.999 76.0864C-136.696 76.7442 -136.24 77.3193 -135.667 77.7629C-135.839 77.544 -135.987 77.3081 -136.11 77.0588C-137.42 74.3429 -136.977 68.0799 -135.275 68.0799H-63.9036C-59.916 58.306 -51.1431 51.5114 -40.9452 51.5114C-32.8189 51.5114 -25.6172 55.8343 -20.9901 62.5284C-25.4975 54.3135 -33.2429 48.8721 -42.0589 48.8721ZM101.042 66.5232H93.7615C93.7878 66.5759 93.8117 66.6262 93.8357 66.6788C94.0326 67.0993 94.345 67.4551 94.7364 67.7048C95.1277 67.9546 95.582 68.088 96.0463 68.0895H102.489C102.504 67.89 102.478 67.6893 102.413 67.5003C102.347 67.3112 102.243 67.1377 102.107 66.9906C101.972 66.8436 101.807 66.7262 101.624 66.6457C101.44 66.5653 101.242 66.5236 101.042 66.5232V66.5232Z" fill="#E6E7E8"/>
<path d="M2.61287 14.916H-57.08C-63.3454 18.269 -72.7242 24.6349 -85.6045 35.798H-25.9187C-13.0312 24.6349 -3.65244 18.269 2.61287 14.916Z" fill="black"/>
<path d="M91.0769 29.6981C87.9634 20.3863 84.4786 18.0129 82.0525 17.4836C80.8287 17.2201 76.8721 16.9351 71.4451 16.6836C71.1693 16.6704 70.8945 16.7235 70.6436 16.8385C70.3927 16.9535 70.173 17.1271 70.0031 17.3447C69.8332 17.5622 69.718 17.8173 69.6672 18.0887C69.6164 18.36 69.6314 18.6395 69.7111 18.9038C71.3442 24.4506 72.6501 30.0886 73.6221 35.7885H73.991C77.1931 35.7981 92.2744 33.2906 91.0769 29.6981Z" fill="#231F20"/>
<path d="M16.061 16.9804C12.3008 17.6295 3.40107 21.5309 -11.5533 32.627C-12.9137 33.6352 -14.8656 35.7979 -10.5019 35.7979H30.6753L29.6718 16.0967C23.7034 16.2308 18.7865 16.5086 16.061 16.9804Z" fill="#709AA3"/>
<path d="M62.7795 16.3649C53.6785 16.0823 42.9011 15.9194 33.7642 16.0271L34.77 35.7979H67.821C66.4367 27.8944 64.0992 19.5119 62.9017 16.6379L62.7795 16.3649Z" fill="#709AA3"/>
<path d="M2.69922 35.7979H30.6751L29.6716 16.0967C23.7033 16.2308 18.7864 16.5086 16.0609 16.9804C13.7688 17.3756 9.55369 18.997 3.2309 22.7045C3.30668 27.0756 3.12916 31.4474 2.69922 35.7979V35.7979Z" fill="#414042"/>
<path d="M44.7503 34.1694C43.9418 34.1695 43.1546 33.9101 42.5044 33.4294C41.8543 32.9487 41.3756 32.2721 41.1387 31.499L38.8155 23.9284C38.642 23.3631 38.6036 22.765 38.7033 22.1822C38.803 21.5994 39.0381 21.0481 39.3896 20.5727C39.7411 20.0972 40.1993 19.7109 40.7273 19.4448C41.2552 19.1786 41.8383 19.04 42.4296 19.0402H63.7451C63.4242 18.0463 63.1295 17.2224 62.8853 16.6452L62.7727 16.3722C53.6717 16.0896 42.8942 15.9267 33.7573 16.0345L34.7632 35.8052H67.8142C67.7184 35.2639 67.6194 34.721 67.5172 34.1766L44.7503 34.1694Z" fill="#414042"/>
<path d="M54.9027 34.0978C54.6561 34.1035 54.4112 34.0553 54.1851 33.9566C53.959 33.858 53.7572 33.7112 53.5937 33.5265C53.4302 33.3418 53.309 33.1236 53.2385 32.8872C53.168 32.6508 53.1499 32.4019 53.1855 32.1578L53.904 25.9308C53.9693 25.4854 53.9366 25.0312 53.8081 24.5997C53.6797 24.1683 53.4585 23.7701 53.1602 23.433C52.8619 23.0959 52.4936 22.828 52.0809 22.648C51.6683 22.468 51.2214 22.3803 50.7714 22.391H45.6029C41.2345 22.391 37.2851 25.9308 36.7821 30.2945L36.5666 32.1554C36.4924 32.7997 35.5966 33.3697 34.6626 33.7218L34.768 35.7958H57.3049C57.1399 35.2923 56.8173 34.8554 56.3846 34.5495C55.952 34.2437 55.4324 34.0853 54.9027 34.0978Z" fill="black"/>
<path d="M67.3878 33.5298C67.2278 33.3431 67.1091 33.1249 67.0394 32.8892C66.9696 32.6535 66.9504 32.4058 66.983 32.1622L67.0309 31.7503C66.3268 28.3805 65.5173 25.1185 64.7605 22.4098C64.6958 22.4098 64.6359 22.3906 64.5688 22.3906H59.4005C55.032 22.3906 51.0826 25.9304 50.5797 30.2941L50.3642 32.155C50.2396 33.2256 47.8494 34.095 46.7717 34.095C46.1972 34.108 45.6362 34.272 45.1452 34.5705C44.6541 34.869 44.2503 35.2914 43.9743 35.7954H67.8045C67.6799 35.0434 67.5362 34.2842 67.3878 33.5298ZM30.4018 32.1622L30.4617 31.6329L30.0282 23.1163C29.454 22.6454 28.7326 22.3911 27.99 22.3978H22.8193C18.4532 22.3978 14.5038 25.9376 13.9985 30.3013L13.7829 32.1622C13.6608 33.2328 11.2706 34.1021 10.1904 34.1021C9.61592 34.1152 9.05499 34.2791 8.56396 34.5776C8.07293 34.8761 7.6691 35.2986 7.39307 35.8026H30.6676L30.5288 33.0795C30.4057 32.7888 30.3619 32.4706 30.4018 32.1574V32.1622Z" fill="#231F20"/>
<path d="M29.1659 35.7981C29.002 35.2952 28.6806 34.8583 28.2493 34.5521C27.818 34.2459 27.2997 34.0866 26.7709 34.0977V34.0977C26.5241 34.1039 26.279 34.056 26.0527 33.9574C25.8264 33.8589 25.6245 33.7121 25.4609 33.5273C25.2973 33.3425 25.1761 33.1242 25.1057 32.8876C25.0354 32.651 25.0176 32.4019 25.0536 32.1578L25.7721 25.9308C25.837 25.4854 25.804 25.0313 25.6754 24.6001C25.5468 24.1688 25.3256 23.7708 25.0274 23.4338C24.7291 23.0968 24.361 22.8289 23.9486 22.6487C23.5362 22.4686 23.0894 22.3807 22.6395 22.3909H17.4687C13.1026 22.3909 9.15323 25.9308 8.64789 30.2944L8.43476 32.1554C8.31022 33.2259 5.92001 34.0953 4.84226 34.0953C4.26783 34.1086 3.70698 34.2726 3.21599 34.5711C2.725 34.8696 2.32114 35.2919 2.04492 35.7957L29.1659 35.7981Z" fill="#6D6E71"/>
<path opacity="0.5" d="M62.8928 16.6379L62.7802 16.3649C53.6792 16.0823 42.9018 15.9194 33.7648 16.0271L34.2965 26.4837C44.2406 26.3065 57.825 26.1747 65.7309 26.0813C64.6747 21.8518 63.5897 18.3072 62.8928 16.6379ZM16.061 16.9803C12.3008 17.6294 3.40107 21.5309 -11.5533 32.6269C-12.9137 33.6352 -14.8656 35.7979 -10.5019 35.7979H4.12914C13.3738 29.7792 19.2368 27.3771 22.0916 26.8837C22.7766 26.7639 25.8637 26.6585 30.1939 26.5627L29.6598 16.0966C23.7034 16.2307 18.7865 16.5085 16.061 16.9803V16.9803Z" fill="white"/>
<path d="M91.0769 29.6981C87.9634 20.3863 84.4786 18.0129 82.0525 17.4836C80.8287 17.2201 76.8721 16.9351 71.4451 16.6836C71.1693 16.6704 70.8945 16.7235 70.6436 16.8385C70.3927 16.9535 70.173 17.1271 70.0031 17.3447C69.8332 17.5622 69.718 17.8173 69.6672 18.0887C69.6164 18.36 69.6314 18.6395 69.7111 18.9038C70.329 20.9611 70.9829 23.4112 71.608 26.0026C75.2388 26.2062 77.823 26.4241 78.7714 26.6277C80.661 27.0372 83.2021 28.5868 85.7025 33.6522C89.0315 32.6272 91.599 31.2692 91.0769 29.6981Z" fill="#414042"/>
<path d="M96.3911 49.7944L98.2017 62.5382C98.2917 63.1728 98.6078 63.7536 99.0918 64.1739C99.5758 64.5941 100.195 64.8254 100.836 64.8254H101.119C101.581 57.9542 101.358 50.2686 101.152 45.9888H99.6938C99.2161 45.9888 98.7438 46.0915 98.3092 46.2898C97.8746 46.4881 97.4876 46.7775 97.1744 47.1383C96.8613 47.4991 96.6293 47.923 96.4942 48.3813C96.359 48.8395 96.3239 49.3214 96.3911 49.7944V49.7944Z" fill="#BE1E2D"/>
<path d="M97.4164 52.4865L98.6881 61.4462C98.7567 61.9304 98.9977 62.3735 99.3669 62.6943C99.736 63.015 100.208 63.1918 100.698 63.1922V63.1922C100.726 63.1928 100.754 63.1821 100.775 63.1624C100.796 63.1427 100.809 63.1155 100.81 63.0867C101.131 58.2177 100.975 52.8027 100.834 49.7227C100.832 49.6943 100.819 49.6677 100.798 49.6485C100.777 49.6294 100.75 49.619 100.721 49.6197H99.9071C99.5471 49.6195 99.1912 49.6968 98.8635 49.8461C98.5359 49.9954 98.2441 50.2133 98.008 50.4851C97.7718 50.7569 97.5969 51.0762 97.4948 51.4215C97.3927 51.7668 97.366 52.13 97.4164 52.4865V52.4865Z" fill="#ED1C24"/>
<path opacity="0.5" d="M97.704 48.6183L98.5399 54.5077C98.5849 54.8261 98.7435 55.1176 98.9864 55.3284C99.2294 55.5392 99.5403 55.6551 99.8619 55.6548V55.6548C99.8808 55.6548 99.899 55.6477 99.9128 55.6348C99.9266 55.6219 99.935 55.6043 99.9362 55.5854C100.094 52.6594 100.098 49.7271 99.9505 46.8005C99.9493 46.7819 99.9409 46.7645 99.927 46.752C99.9131 46.7395 99.895 46.7328 99.8763 46.7334H99.3422C99.1055 46.7335 98.8716 46.7845 98.6562 46.8827C98.4409 46.9809 98.2491 47.1241 98.0938 47.3028C97.9385 47.4814 97.8234 47.6913 97.7562 47.9183C97.6889 48.1452 97.6711 48.3839 97.704 48.6183V48.6183Z" fill="white"/>
<path d="M101.119 65.0312H100.837C100.146 65.0297 99.4798 64.7798 98.9587 64.3273C98.4376 63.8748 98.0968 63.2499 97.9984 62.5668L96.1998 49.8158C96.1285 49.314 96.1657 48.8027 96.3091 48.3165C96.4524 47.8303 96.6986 47.3806 97.0308 46.9977C97.363 46.6149 97.7736 46.3078 98.2347 46.0974C98.6959 45.8869 99.1968 45.7779 99.7036 45.7778H101.162C101.213 45.7833 101.259 45.8073 101.293 45.8451C101.327 45.8829 101.346 45.9319 101.346 45.9827C101.346 46.0334 101.327 46.0824 101.293 46.1202C101.259 46.158 101.213 46.182 101.162 46.1874H99.7036C99.2553 46.1874 98.8123 46.2837 98.4044 46.4698C97.9965 46.6559 97.6334 46.9274 97.3395 47.2659C97.0457 47.6045 96.828 48.0023 96.7012 48.4323C96.5744 48.8623 96.5414 49.3145 96.6045 49.7583L98.4128 62.5021C98.4982 63.0872 98.7908 63.6223 99.2374 64.0099C99.6839 64.3976 100.255 64.6121 100.846 64.6145H101.129C101.183 64.6145 101.234 64.636 101.273 64.6742C101.311 64.7123 101.332 64.7641 101.332 64.8181C101.333 64.8463 101.328 64.8745 101.318 64.9009C101.308 64.9272 101.292 64.951 101.272 64.971C101.252 64.991 101.228 65.0067 101.202 65.017C101.176 65.0274 101.147 65.0323 101.119 65.0312V65.0312Z" fill="black"/>
<g style="mix-blend-mode:multiply">
<path d="M26.9721 45.9885C28.6585 45.9885 30.0257 45.0321 30.0257 43.8522C30.0257 42.6723 28.6585 41.7158 26.9721 41.7158C25.2856 41.7158 23.9185 42.6723 23.9185 43.8522C23.9185 45.0321 25.2856 45.9885 26.9721 45.9885Z" fill="#939598"/>
</g>
<g style="mix-blend-mode:multiply">
<g style="mix-blend-mode:multiply">
<path d="M29.2282 45.0571H23.9592C23.6416 45.0571 23.337 44.931 23.1124 44.7064C22.8879 44.4818 22.7617 44.1772 22.7617 43.8596C22.7617 43.542 22.8879 43.2375 23.1124 43.0129C23.337 42.7883 23.6416 42.6621 23.9592 42.6621H29.2282C29.5458 42.6621 29.8504 42.7883 30.0749 43.0129C30.2995 43.2375 30.4257 43.542 30.4257 43.8596C30.4257 44.1772 30.2995 44.4818 30.0749 44.7064C29.8504 44.931 29.5458 45.0571 29.2282 45.0571Z" fill="#939598"/>
</g>
</g>
<path d="M29.9831 45.0571H24.7141C24.3965 45.0571 24.0919 44.931 23.8673 44.7064C23.6427 44.4818 23.5166 44.1772 23.5166 43.8596C23.5166 43.542 23.6427 43.2375 23.8673 43.0129C24.0919 42.7883 24.3965 42.6621 24.7141 42.6621H29.9831C30.3007 42.6621 30.6052 42.7883 30.8298 43.0129C31.0544 43.2375 31.1806 43.542 31.1806 43.8596V43.8596C31.1806 44.1772 31.0544 44.4818 30.8298 44.7064C30.6052 44.931 30.3007 45.0571 29.9831 45.0571V45.0571Z" fill="white"/>
<g style="mix-blend-mode:multiply">
<path d="M64.5497 45.9885C66.2362 45.9885 67.6033 45.0321 67.6033 43.8522C67.6033 42.6723 66.2362 41.7158 64.5497 41.7158C62.8632 41.7158 61.4961 42.6723 61.4961 43.8522C61.4961 45.0321 62.8632 45.9885 64.5497 45.9885Z" fill="#939598"/>
</g>
<g style="mix-blend-mode:multiply">
<g style="mix-blend-mode:multiply">
<path d="M66.8034 45.0571H61.5344C61.2168 45.0571 60.9122 44.931 60.6876 44.7064C60.4631 44.4818 60.3369 44.1772 60.3369 43.8596C60.3369 43.542 60.4631 43.2375 60.6876 43.0129C60.9122 42.7883 61.2168 42.6621 61.5344 42.6621H66.8034C67.121 42.6621 67.4256 42.7883 67.6502 43.0129C67.8748 43.2375 68.0009 43.542 68.0009 43.8596V43.8596C68.0009 44.1772 67.8748 44.4818 67.6502 44.7064C67.4256 44.931 67.121 45.0571 66.8034 45.0571V45.0571Z" fill="#939598"/>
</g>
</g>
<path d="M67.5578 45.0571H62.2888C61.9712 45.0571 61.6667 44.931 61.4421 44.7064C61.2175 44.4818 61.0913 44.1772 61.0913 43.8596C61.0913 43.542 61.2175 43.2375 61.4421 43.0129C61.6667 42.7883 61.9712 42.6621 62.2888 42.6621H67.5578C67.8754 42.6621 68.18 42.7883 68.4046 43.0129C68.6292 43.2375 68.7553 43.542 68.7553 43.8596C68.7553 44.1772 68.6292 44.4818 68.4046 44.7064C68.18 44.931 67.8754 45.0571 67.5578 45.0571Z" fill="white"/>
<path d="M45.6649 75.4424H-12.7731C-16.5572 75.4424 -17.8601 41.9292 -17.9966 38.1092C-17.9958 37.129 -17.7762 36.1614 -17.354 35.2768C-16.9318 34.3922 -16.3176 33.613 -15.5561 32.9959C3.09854 17.8523 11.426 15.3639 13.536 14.9639C23.5064 13.0647 49.7005 13.2252 64.7889 14.0706C66.3648 14.1592 72.2134 36.6291 71.9404 46.2498C71.847 49.6028 71.0422 51.2793 69.5454 51.2793C56.9357 51.2793 49.9064 65.9822 48.491 73.1025C48.3631 73.7591 48.0115 74.3511 47.4962 74.7778C46.981 75.2044 46.3338 75.4392 45.6649 75.4424V75.4424ZM41.476 13.891C30.2698 13.891 19.2025 14.2981 13.6078 15.3615C11.5218 15.759 3.27578 18.2355 -15.3046 33.324C-16.018 33.9021 -16.5936 34.632 -16.9892 35.4606C-17.3849 36.2893 -17.5908 37.1957 -17.5918 38.114C-17.0625 52.9629 -15.3453 75.0449 -12.7779 75.0449H45.6601C46.2324 75.0417 46.7861 74.8406 47.227 74.4756C47.6679 74.1106 47.969 73.6043 48.079 73.0426C49.516 65.8145 56.6722 50.8913 69.5358 50.8913C70.3285 50.8913 70.8722 50.2614 71.198 48.9753C73.0637 41.6155 66.1685 15.3687 64.7315 14.4873C58.4326 14.1305 49.916 13.891 41.4784 13.891H41.476Z" fill="black"/>
<path d="M33.1368 75.241H32.7297V39.8837L31.4028 13.9195L31.8124 13.8979L33.1368 39.8741V75.241Z" fill="black"/>
<g style="mix-blend-mode:multiply">
<path d="M29.6688 15.6873C23.1592 15.8358 18.5607 16.1351 15.9981 16.5782C13.9839 16.9255 6.02772 19.0882 -11.7839 32.299C-12.4281 32.778 -13.8866 34.0042 -13.5274 35.0916C-13.2879 35.8436 -12.2844 36.2076 -10.4881 36.2076H30.689C30.7446 36.2078 30.7996 36.1967 30.8506 36.1749C30.9017 36.153 30.9478 36.121 30.986 36.0807C31.0241 36.0405 31.0537 35.9931 31.073 35.9413C31.0924 35.8894 31.101 35.8342 31.0986 35.7789L30.0927 16.0753C30.0871 15.9679 30.0395 15.8671 29.9602 15.7945C29.8809 15.7219 29.7762 15.6834 29.6688 15.6873ZM-4.94855 33.7959V30.9818C-4.94849 30.1848 -4.75171 29.4001 -4.3757 28.6974C-3.99969 27.9947 -3.45608 27.3956 -2.79305 26.9534C8.94244 19.1553 14.5108 17.6632 16.1274 17.3734C18.5967 16.9471 23.0227 16.6549 29.2784 16.5064L30.2364 35.3814H-3.35344C-3.77483 35.3814 -4.17911 35.2146 -4.47797 34.9176C-4.77683 34.6205 -4.94602 34.2173 -4.94855 33.7959V33.7959ZM63.1484 16.2094C63.1177 16.1367 63.0669 16.0743 63.002 16.0294C62.9372 15.9844 62.8609 15.9588 62.782 15.9556C52.6991 15.6442 42.118 15.522 33.7498 15.6178C33.6946 15.6184 33.64 15.6301 33.5895 15.6523C33.5389 15.6745 33.4933 15.7068 33.4555 15.747C33.4177 15.7873 33.3884 15.8348 33.3694 15.8867C33.3505 15.9386 33.3422 15.9938 33.3451 16.0489L34.3534 35.8197C34.3583 35.9243 34.4034 36.023 34.4792 36.0952C34.5551 36.1675 34.6558 36.2077 34.7605 36.2076H67.8115C67.8713 36.2075 67.9303 36.1944 67.9845 36.1691C68.0386 36.1439 68.0867 36.1072 68.1253 36.0616C68.1636 36.016 68.1914 35.9625 68.2068 35.905C68.2221 35.8474 68.2245 35.7872 68.2138 35.7286C66.7601 27.4084 64.4082 19.2032 63.2706 16.4824L63.1484 16.2094ZM35.1509 35.3909L34.1929 16.4322C42.4078 16.3435 52.6775 16.4657 62.5018 16.7674L62.5138 16.7961C63.5868 19.366 65.8883 27.394 67.3205 35.3909H35.1509ZM91.4573 29.5735C88.9641 22.0915 85.8243 17.8931 82.1288 17.0932C80.9313 16.8345 77.1352 16.5471 71.4519 16.286C71.0617 16.2666 70.6738 16.3552 70.3307 16.5419C69.9876 16.7287 69.7027 17.0064 69.5072 17.3446C69.3579 17.6144 69.2659 17.9123 69.237 18.2193C69.2082 18.5263 69.2431 18.836 69.3395 19.1289C70.9535 24.6284 72.245 30.2175 73.2074 35.8675C73.2238 35.9629 73.2735 36.0494 73.3476 36.1117C73.4217 36.1739 73.5154 36.2079 73.6122 36.2076H73.981C76.7903 36.2076 88.909 34.3324 91.1555 31.2165C91.3383 30.9892 91.4622 30.7204 91.5165 30.4339C91.5708 30.1474 91.5538 29.8519 91.4669 29.5735H91.4573ZM90.4993 30.7375C88.5833 33.4079 77.0706 35.3909 73.9882 35.3909H73.9642C72.9963 29.7897 71.7065 24.2489 70.1011 18.796C70.0397 18.5944 70.0278 18.3811 70.0662 18.1739C70.1047 17.9668 70.1924 17.7719 70.3221 17.6058C70.4518 17.4397 70.6195 17.3073 70.8112 17.2198C71.0028 17.1322 71.2127 17.092 71.4232 17.1027C77.061 17.3614 80.8044 17.644 81.9612 17.8931C85.3549 18.6259 88.2887 22.6424 90.6837 29.8322C90.7321 29.9862 90.7408 30.1499 90.709 30.3082C90.6772 30.4665 90.6059 30.6141 90.5017 30.7375H90.4993Z" fill="black"/>
</g>
<g style="mix-blend-mode:multiply">
<path d="M4.33956 47.0906L-4.79493 39.6206C-5.09428 39.3756 -5.33554 39.0671 -5.50121 38.7176C-5.66688 38.368 -5.75283 37.986 -5.75293 37.5992V32.7182C-5.75293 31.2812 -4.58179 31.0585 -3.13521 32.2392L4.33956 38.3536C5.05806 38.9356 5.6329 39.9894 5.6329 40.7031V46.8534C5.6329 47.5695 5.05327 47.675 4.33956 47.0906Z" fill="#939598"/>
</g>
<path d="M-3.13517 27.1089H4.34201C4.51184 27.1089 4.68006 27.1424 4.83697 27.2074C4.99388 27.2723 5.13641 27.3676 5.2565 27.4877C5.3766 27.6078 5.47188 27.7503 5.53687 27.9073C5.60187 28.0642 5.63534 28.2324 5.63534 28.4022V34.5526C5.63534 34.8956 5.49904 35.2245 5.2565 35.4671C5.01396 35.7096 4.68501 35.8458 4.34201 35.8458H-5.75049V29.7267C-5.75049 29.0328 -5.47503 28.3673 -4.98463 27.8764C-4.49422 27.3856 -3.82902 27.1095 -3.13517 27.1089V27.1089Z" fill="#414042"/>
<path d="M-3.13535 27.1089H2.79467C2.96451 27.1089 3.13266 27.1424 3.28957 27.2074C3.44648 27.2724 3.58907 27.3676 3.70917 27.4877C3.82926 27.6078 3.92454 27.7504 3.98954 27.9073C4.05453 28.0642 4.08795 28.2324 4.08795 28.4022V34.5526C4.08795 34.8956 3.95171 35.2245 3.70917 35.4671C3.46663 35.7096 3.13767 35.8458 2.79467 35.8458H-5.76025V29.7267C-5.76026 29.3823 -5.69234 29.0413 -5.56034 28.7232C-5.42834 28.4052 -5.23484 28.1162 -4.991 27.8731C-4.74716 27.6299 -4.45773 27.4373 -4.1393 27.3061C-3.82088 27.175 -3.47972 27.108 -3.13535 27.1089V27.1089Z" fill="#A7A9AC"/>
<path d="M-3.39609 28.5435H3.04649C3.32407 28.5435 3.59029 28.6537 3.78657 28.85C3.98285 29.0463 4.09308 29.3125 4.09308 29.5901V31.4773H-5.51562V30.6559C-5.51372 30.095 -5.28961 29.5577 -4.89232 29.1617C-4.49503 28.7658 -3.95699 28.5435 -3.39609 28.5435V28.5435Z" fill="#D1D3D4"/>
<path d="M1.35778 29.9808H-2.99391C-3.33904 29.9801 -3.66985 29.8426 -3.91367 29.5983C-4.15749 29.354 -4.29443 29.023 -4.29443 28.6779V28.6779C-4.29443 28.333 -4.15738 28.0022 -3.91349 27.7583C-3.6696 27.5144 -3.33882 27.3774 -2.99391 27.3774H1.35778C1.70269 27.3774 2.03348 27.5144 2.27737 27.7583C2.52126 28.0022 2.65825 28.333 2.65825 28.6779V28.6779C2.65825 29.023 2.5213 29.354 2.27748 29.5983C2.03367 29.8426 1.70291 29.9801 1.35778 29.9808V29.9808Z" fill="white"/>
<g style="mix-blend-mode:multiply">
<path d="M-102.748 170.934C34.6907 170.934 146.107 170.019 146.107 168.891C146.107 167.762 34.6907 166.848 -102.748 166.848C-240.187 166.848 -351.603 167.762 -351.603 168.891C-351.603 170.019 -240.187 170.934 -102.748 170.934Z" fill="#58595B"/>
</g>
<path d="M26.515 98.6118H-341.313V148.179H26.515V98.6118Z" fill="black"/>
<path d="M19.6245 107.864H-6.1169C-22.4867 107.864 -35.9658 122.085 -37.8291 140.4H-8.34187C-7.09886 129.622 -1.29578 120.521 6.74662 115.743C14.7938 120.519 20.5969 129.634 21.8351 140.4H51.3199C49.471 122.085 35.9919 107.864 19.6245 107.864Z" fill="#58595B"/>
<path d="M-12.9333 144.746C-12.9313 143.47 -12.8425 142.195 -12.6674 140.931H-24.7478C-24.924 142.195 -25.0129 143.47 -25.0137 144.746C-25.0137 158.079 -15.6564 168.89 -4.11013 168.89H7.98221C-3.57604 168.89 -12.9333 158.07 -12.9333 144.746Z" fill="black"/>
<path d="M7.97262 120.607H-4.11978C-8.53137 120.607 -12.622 122.188 -15.9941 124.882H-3.91139C-0.529654 122.188 3.56103 120.607 7.97262 120.607Z" fill="black"/>
<path d="M7.50328 120.607C19.3082 120.607 28.8762 131.418 28.8762 144.747C28.8762 158.075 19.2963 168.891 7.50328 168.891C-4.28968 168.891 -13.8721 158.08 -13.8721 144.747C-13.8721 131.414 -4.30405 120.607 7.50328 120.607Z" fill="#939598"/>
<path d="M7.97284 120.607C19.5191 120.607 28.8763 131.418 28.8763 144.747C28.8763 158.075 19.5191 168.891 7.97284 168.891C-3.57345 168.891 -12.9331 158.08 -12.9331 144.747C-12.9331 131.414 -3.57584 120.607 7.97284 120.607Z" fill="#414042"/>
<path d="M-0.0624012 144.746C-0.0604132 143.47 0.0283741 142.195 0.203411 140.931H-11.8865C-12.0628 142.195 -12.1516 143.47 -12.1523 144.746C-12.1523 158.079 -2.79508 168.89 8.7512 168.89H20.8435C9.29486 168.89 -0.0624012 158.07 -0.0624012 144.746Z" fill="black"/>
<path d="M-7.1609 129.09C-8.74954 131.257 -9.98174 133.663 -10.8109 136.218C-11.3096 137.753 -11.6695 139.329 -11.8862 140.929H0.203714C0.421241 139.329 0.781938 137.753 1.28146 136.218V136.218C2.10866 133.662 3.34101 131.255 4.93144 129.09H-7.1609Z" fill="black"/>
<path d="M-3.12314 124.882C-4.6463 126.104 -6.00374 127.52 -7.16113 129.093H4.93121C6.0871 127.519 7.44382 126.104 8.9668 124.882H-3.12314Z" fill="black"/>
<path d="M20.8432 120.607H8.75088C4.3393 120.607 0.248621 122.188 -3.12354 124.882H8.96641C12.341 122.188 16.4316 120.607 20.8432 120.607Z" fill="black"/>
<path d="M20.3739 120.607C32.1812 120.607 41.7468 131.418 41.7468 144.747C41.7468 158.075 32.1812 168.891 20.3739 168.891C8.56655 168.891 -1.00146 158.08 -1.00146 144.747C-1.00146 131.414 8.56655 120.607 20.3739 120.607Z" fill="#939598"/>
<path d="M20.8434 120.607C32.3897 120.607 41.7469 131.418 41.7469 144.747C41.7469 158.075 32.3897 168.891 20.8434 168.891C9.29716 168.891 -0.0625 158.08 -0.0625 144.747C-0.0625 131.414 9.29476 120.607 20.8434 120.607Z" fill="#414042"/>
<path d="M20.8432 128.477C28.6269 128.477 34.9329 135.763 34.9329 144.746C34.9329 153.73 28.6269 161.032 20.8432 161.032C13.0595 161.032 6.75342 153.747 6.75342 144.746C6.75342 135.746 13.0595 128.477 20.8432 128.477Z" fill="#231F20"/>
<path d="M20.8432 129.878C27.9564 129.878 33.7188 136.539 33.7188 144.747C33.7188 152.954 27.9564 159.619 20.8432 159.619C13.7301 159.619 7.96533 152.961 7.96533 144.747C7.96533 136.532 13.7301 129.878 20.8432 129.878Z" fill="#D1D3D4"/>
<path d="M20.8435 131.667C27.1016 131.667 32.1718 137.526 32.1718 144.749C32.1718 151.972 27.1016 157.83 20.8435 157.83C14.5854 157.83 9.51514 151.975 9.51514 144.749C9.51514 137.523 14.5854 131.667 20.8435 131.667Z" fill="#939598"/>
<path d="M18.4149 131.976C13.3256 133.26 9.51514 138.488 9.51514 144.749C9.51514 151.009 13.3256 156.245 18.4149 157.523C23.5067 156.237 27.3171 151.009 27.3171 144.749C27.3171 138.488 23.5067 133.26 18.4149 131.976Z" fill="#6D6E71"/>
<path d="M18.1898 155.994C18.5826 156.782 20.0531 156.655 21.4709 155.706C22.8888 154.758 23.7222 153.352 23.3271 152.564C22.9319 151.776 21.4662 151.905 20.0459 152.851C18.6257 153.797 17.797 155.196 18.1898 155.994ZM24.0935 144.749C24.0935 146.643 24.7305 148.179 25.5305 148.179C26.3304 148.179 26.9675 146.643 26.9675 144.749C26.9675 142.855 26.328 141.319 25.5305 141.319C24.7329 141.319 24.0935 142.855 24.0935 144.749V144.749ZM18.1898 133.493C17.797 134.281 18.6281 135.689 20.0459 136.635C21.4638 137.581 22.9343 137.71 23.3271 136.922C23.7198 136.134 22.8912 134.728 21.4709 133.78C20.0507 132.832 18.5826 132.717 18.1898 133.505V133.493Z" fill="black"/>
<g style="mix-blend-mode:multiply">
<path d="M20.8435 143.532C24.7101 143.501 28.5453 144.229 32.1311 145.676C32.1478 145.369 32.1718 145.06 32.1718 144.749C32.1718 137.526 27.1016 131.667 20.8435 131.667C14.5854 131.667 9.51514 137.526 9.51514 144.749C9.51514 145.06 9.53667 145.369 9.55583 145.676C13.1416 144.229 16.9768 143.5 20.8435 143.532Z" fill="#939598"/>
</g>
<g style="mix-blend-mode:multiply">
<g style="mix-blend-mode:multiply">
<path d="M15.9889 139.149C18.6713 139.149 20.8436 141.659 20.8436 144.754C20.8436 147.848 18.6713 154.305 15.9889 154.305C13.3065 154.305 11.1343 147.838 11.1343 144.754C11.1343 141.669 13.3089 139.149 15.9889 139.149Z" fill="#939598"/>
</g>
</g>
<path d="M20.8436 150.355H15.989C13.309 150.355 11.1343 147.845 11.1343 144.749C11.1326 144.076 11.2385 143.407 11.448 142.768H16.3003C16.0927 143.408 15.9876 144.076 15.989 144.749C15.989 147.845 18.1612 150.355 20.8436 150.355Z" fill="#231F20"/>
<path d="M16.3 142.768H11.4478C11.6399 142.175 11.9253 141.617 12.2932 141.113H17.1479C16.7792 141.616 16.493 142.175 16.3 142.768" fill="#939598"/>
<path d="M17.1481 141.113H12.2935C12.7103 140.517 13.2625 140.027 13.9048 139.685C14.5471 139.343 15.2613 139.158 15.989 139.145H20.8436C20.116 139.158 19.4018 139.343 18.7595 139.685C18.1172 140.027 17.565 140.517 17.1481 141.113" fill="#939598"/>
<path d="M20.8439 139.149C23.5239 139.149 25.6962 141.659 25.6962 144.754C25.6962 147.848 23.5239 150.36 20.8439 150.36C18.1639 150.36 15.9893 147.85 15.9893 144.754C15.9893 141.657 18.1615 139.149 20.8439 139.149Z" fill="white"/>
<path d="M-166.555 107.864V140.4H-9.29031C-7.49885 123.089 4.84014 109.682 19.8352 109.682C34.8303 109.682 47.1694 123.094 48.9608 140.4H72.2498C80.8784 140.4 89.1537 136.972 95.2554 130.871C101.357 124.77 104.785 116.495 104.786 107.866H-166.567L-166.555 107.864Z" fill="#00386C"/>
<path d="M-8.34214 140.4C-6.50278 124.459 5.30935 112.156 19.6243 112.156C33.9392 112.156 45.7489 124.459 47.5906 140.4H51.334C49.4707 122.085 35.9917 107.864 19.6243 107.864C3.25684 107.864 -10.2246 122.085 -12.0879 140.4H-8.34214Z" fill="#F1F2F2"/>
<path d="M-8.34214 140.4C-6.50278 124.459 5.30935 112.156 19.6243 112.156C33.9392 112.156 45.7489 124.459 47.5906 140.4H51.334C49.4707 122.085 35.9917 107.864 19.6243 107.864C3.25684 107.864 -10.2246 122.085 -12.0879 140.4H-8.34214Z" fill="#F1F2F2"/>
<path d="M155.497 98.6118H-132.175V104.403H155.497V98.6118Z" fill="#E6E7E8"/>
<path d="M150.326 107.866H-137.347L-132.176 104.4H155.497L150.326 107.866Z" fill="#939598"/>
<g style="mix-blend-mode:multiply">
<path d="M104.788 107.864H-139.708V111.001H104.788V107.864Z" fill="#808285"/>
</g>
<path d="M3.55402 100H-4.26562V103.011H3.55402V100Z" fill="black"/>
<path d="M11.3739 100H3.5542V103.011H11.3739V100Z" fill="#71ACE4"/>
<path d="M19.1956 100H11.376V103.011H19.1956V100Z" fill="black"/>
<path d="M27.0154 100H19.1958V103.011H27.0154V100Z" fill="#71ACE4"/>
<path d="M34.8353 100H27.0156V103.011H34.8353V100Z" fill="black"/>
<path d="M42.657 100H34.8374V103.011H42.657V100Z" fill="#71ACE4"/>
<path d="M50.4764 100H42.6567V103.011H50.4764V100Z" fill="black"/>
<path d="M58.2962 100H50.4766V103.011H58.2962V100Z" fill="#71ACE4"/>
<path d="M66.1185 100H58.2988V103.011H66.1185V100Z" fill="black"/>
<path d="M73.9384 100H66.1187V103.011H73.9384V100Z" fill="#71ACE4"/>
<path d="M81.7576 100H73.938V103.011H81.7576V100Z" fill="black"/>
<path d="M89.58 100H81.7603V103.011H89.58V100Z" fill="#71ACE4"/>
<path d="M97.3997 100H89.5801V103.011H97.3997V100Z" fill="black"/>
<path d="M105.219 100H97.3994V103.011H105.219V100Z" fill="#71ACE4"/>
<path d="M113.041 100H105.222V103.011H113.041V100Z" fill="black"/>
<path d="M120.861 100H113.042V103.011H120.861V100Z" fill="#71ACE4"/>
<path d="M128.681 100H120.861V103.011H128.681V100Z" fill="black"/>
<path d="M136.502 100H128.683V103.011H136.502V100Z" fill="#71ACE4"/>
<path d="M144.322 100H136.502V103.011H144.322V100Z" fill="black"/>
<path d="M152.142 100H144.322V103.011H152.142V100Z" fill="#71ACE4"/>
</g>
<defs>
<clipPath id="clip0_415:3528">
<rect width="376" height="171" fill="white"/>
</clipPath>
</defs>
</svg>
