<svg width="25" height="25" viewBox="0 0 25 25" fill="none" xmlns="http://www.w3.org/2000/svg">
<path d="M4.36697 14.0441C4.27744 14.2885 4.09614 14.4884 3.86159 14.6012C3.62703 14.7141 3.35771 14.7311 3.11085 14.6485C2.86399 14.566 2.65904 14.3904 2.53956 14.1592C2.42008 13.9279 2.39547 13.6592 2.47097 13.4101C2.45097 13.4701 2.47097 13.4081 2.47097 13.4081C2.50663 13.298 2.54802 13.1898 2.59497 13.0841C2.67497 12.8941 2.79297 12.6321 2.95497 12.3221C3.28297 11.7021 3.79897 10.8761 4.55497 10.0501C6.08897 8.38007 8.59497 6.72607 12.419 6.72607C16.245 6.72607 18.751 8.38007 20.281 10.0501C21.0978 10.9459 21.7602 11.9712 22.241 13.0841C22.281 13.1781 22.311 13.2541 22.331 13.3101C22.339 13.3261 22.359 13.4301 22.379 13.5301C22.397 13.6221 22.413 13.7101 22.419 13.7261C22.419 13.7261 22.587 14.3921 21.735 14.6741C21.4841 14.7579 21.2102 14.7388 20.9733 14.6211C20.7364 14.5034 20.5558 14.2966 20.471 14.0461V14.0401L20.457 14.0081C20.3565 13.7512 20.2417 13.5001 20.113 13.2561C19.758 12.5852 19.3191 11.9622 18.807 11.4021C17.587 10.0721 15.593 8.72607 12.419 8.72607C9.24497 8.72607 7.25097 10.0721 6.03097 11.4021C5.37045 12.1262 4.83331 12.9539 4.44097 13.8521C4.41998 13.9037 4.39997 13.9557 4.38097 14.0081L4.36697 14.0441Z" fill="#41EAD4"/>
<path d="M8.41919 14.7261C8.41919 13.6652 8.84062 12.6478 9.59076 11.8976C10.3409 11.1475 11.3583 10.7261 12.4192 10.7261C13.4801 10.7261 14.4975 11.1475 15.2476 11.8976C15.9978 12.6478 16.4192 13.6652 16.4192 14.7261C16.4192 15.7869 15.9978 16.8044 15.2476 17.5545C14.4975 18.3046 13.4801 18.7261 12.4192 18.7261C11.3583 18.7261 10.3409 18.3046 9.59076 17.5545C8.84062 16.8044 8.41919 15.7869 8.41919 14.7261Z" fill="#41EAD4"/>
</svg>
