<svg width="25" height="25" viewBox="0 0 25 25" fill="none" xmlns="http://www.w3.org/2000/svg">
<path d="M19.791 8.75146L12.791 15.7515L5.79102 8.75146" stroke="#051626" stroke-width="1.5" stroke-linecap="round" stroke-linejoin="round"/>
</svg>
