<svg width="21" height="21" viewBox="0 0 21 21" fill="none" xmlns="http://www.w3.org/2000/svg">
<path fill-rule="evenodd" clip-rule="evenodd" d="M9.22301 9.60622C8.85843 9.60622 8.57015 9.88955 8.57015 10.2479C8.57015 10.5979 8.85843 10.8896 9.22301 10.8896H14.3102V14.8729C14.3102 16.9146 12.623 18.5812 10.5372 18.5812H6.40809C4.33081 18.5812 2.64355 16.9229 2.64355 14.8812V5.62288C2.64355 3.57288 4.33929 1.91455 6.41657 1.91455H10.5542C12.623 1.91455 14.3102 3.57288 14.3102 5.61455V9.60622H9.22301ZM17.3354 7.36472L19.7687 9.78972C19.8937 9.91472 19.9604 10.0731 19.9604 10.2481C19.9604 10.4147 19.8937 10.5814 19.7687 10.6981L17.3354 13.1231C17.2104 13.2481 17.0437 13.3147 16.8854 13.3147C16.7187 13.3147 16.5521 13.2481 16.4271 13.1231C16.1771 12.8731 16.1771 12.4647 16.4271 12.2147L17.7604 10.8897H14.3104V9.60638H17.7604L16.4271 8.28138C16.1771 8.03138 16.1771 7.62305 16.4271 7.37305C16.6771 7.11472 17.0854 7.11472 17.3354 7.36472Z" fill="#051626"/>
</svg>
