{
  "images" : [
    {
      "filename" : "WhatsApp_Image_2022-01-01_at_9.42.00_PM-removebg-preview.png",
      "idiom" : "universal",
      "scale" : "1x"
    },
    {
      "idiom" : "universal",
      "scale" : "2x"
    },
    {
      "idiom" : "universal",
      "scale" : "3x"
    }
  ],
  "info" : {
    "author" : "xcode",
    "version" : 1
  }
}
