<svg width="21" height="21" viewBox="0 0 21 21" fill="none" xmlns="http://www.w3.org/2000/svg">
<path fill-rule="evenodd" clip-rule="evenodd" d="M19.1329 9.08641C19.0201 9.19602 18.867 9.25866 18.7058 9.25866C18.1094 9.25866 17.6258 9.72842 17.6258 10.3C17.6258 10.8754 18.1037 11.3428 18.6945 11.3491C19.0273 11.3522 19.3102 11.5777 19.3102 11.9011V13.9093C19.3102 15.5996 17.8998 16.9705 16.159 16.9705H13.5317C13.2601 16.9705 13.0401 16.7568 13.0401 16.493V14.8018C13.0401 14.473 12.7741 14.2146 12.4356 14.2146C12.1052 14.2146 11.8312 14.473 11.8312 14.8018V16.493C11.8312 16.7568 11.6112 16.9705 11.3404 16.9705H5.79475C4.06199 16.9705 2.64355 15.6004 2.64355 13.9093V11.9011C2.64355 11.5777 2.92644 11.3522 3.25929 11.3491C3.85084 11.3428 4.32795 10.8754 4.32795 10.3C4.32795 9.74408 3.86051 9.32129 3.248 9.32129C3.08682 9.32129 2.93369 9.25866 2.82086 9.14905C2.70803 9.03944 2.64355 8.89068 2.64355 8.73409V6.7063C2.64355 5.0183 4.06522 3.63721 5.80281 3.63721H11.3404C11.6112 3.63721 11.8312 3.85095 11.8312 4.1148V6.1191C11.8312 6.4401 12.1052 6.7063 12.4356 6.7063C12.7741 6.7063 13.0401 6.4401 13.0401 6.1191V4.1148C13.0401 3.85095 13.2601 3.63721 13.5317 3.63721H16.159C17.8998 3.63721 19.3102 5.00734 19.3102 6.69847V8.67146C19.3102 8.82805 19.2457 8.9768 19.1329 9.08641ZM12.4356 12.6957C12.7741 12.6957 13.0401 12.4295 13.0401 12.1085V8.9768C13.0401 8.6558 12.7741 8.3896 12.4356 8.3896C12.1052 8.3896 11.8312 8.6558 11.8312 8.9768V12.1085C11.8312 12.4295 12.1052 12.6957 12.4356 12.6957Z" fill="#130F26"/>
</svg>
