<svg width="21" height="20" viewBox="0 0 21 20" fill="none" xmlns="http://www.w3.org/2000/svg">
<path d="M20.5488 5.81778L18.1778 3.44676C17.7827 3.05159 17.146 3.05159 16.7508 3.44676C16.3557 3.84193 16.3557 4.4786 16.7508 4.87377L18.8364 6.95939V14.0285C18.8364 14.3578 18.551 14.6432 18.2217 14.6432C17.8924 14.6432 17.607 14.3578 17.607 14.0285C17.607 12.36 16.2459 10.9989 14.5774 10.9989H14.5335V1.00988C14.5335 0.439078 14.0724 0 13.5236 0H2.56861C2.01976 0 1.55873 0.439078 1.55873 1.00988V17.9802H1.00988C0.461032 17.9802 0 18.4413 0 18.9901C0 19.5609 0.461032 20 1.00988 20H15.0604C15.6092 20 16.0703 19.5609 16.0703 18.9901C16.0703 18.4413 15.6092 17.9802 15.0604 17.9802H14.5115V13.0187H14.5554C15.1043 13.0187 15.5653 13.4797 15.5653 14.0285C15.5653 15.4775 16.7508 16.663 18.1998 16.663C19.6487 16.663 20.8342 15.4775 20.8342 14.0285V6.54226C20.8562 6.27881 20.7464 6.01537 20.5488 5.81778ZM10.0988 13.4797L7.81559 17.2338C7.618 17.5412 7.15697 17.3875 7.17892 17.0362L7.3326 14.5774H6.25686C5.99341 14.5774 5.81778 14.292 5.97146 14.0505L8.27662 10.2964C8.4742 9.98902 8.93524 10.1427 8.91328 10.494L8.75961 12.9528H9.81339C10.0768 12.9748 10.2525 13.2602 10.0988 13.4797ZM12.4918 7.59605H3.57849V2.01976H12.4918V7.59605Z" fill="white"/>
</svg>
