<svg width="21" height="21" viewBox="0 0 21 21" fill="none" xmlns="http://www.w3.org/2000/svg">
<path d="M2.03516 6.05165C2.03516 5.45883 2.27065 4.89028 2.68984 4.47109C3.10903 4.0519 3.67758 3.81641 4.2704 3.81641H17.6819C18.2747 3.81641 18.8432 4.0519 19.2624 4.47109C19.6816 4.89028 19.9171 5.45883 19.9171 6.05165V7.16927H2.03516V6.05165ZM2.03516 9.40452V14.9926C2.03516 15.5855 2.27065 16.154 2.68984 16.5732C3.10903 16.9924 3.67758 17.2279 4.2704 17.2279H17.6819C18.2747 17.2279 18.8432 16.9924 19.2624 16.5732C19.6816 16.154 19.9171 15.5855 19.9171 14.9926V9.40452H2.03516ZM5.38802 11.6398H6.50565C6.80206 11.6398 7.08633 11.7575 7.29592 11.9671C7.50552 12.1767 7.62327 12.461 7.62327 12.7574V13.875C7.62327 14.1714 7.50552 14.4557 7.29592 14.6653C7.08633 14.8749 6.80206 14.9926 6.50565 14.9926H5.38802C5.09161 14.9926 4.80734 14.8749 4.59774 14.6653C4.38815 14.4557 4.2704 14.1714 4.2704 13.875V12.7574C4.2704 12.461 4.38815 12.1767 4.59774 11.9671C4.80734 11.7575 5.09161 11.6398 5.38802 11.6398Z" fill="#051626"/>
</svg>
