<svg width="21" height="21" viewBox="0 0 21 21" fill="none" xmlns="http://www.w3.org/2000/svg">
<path fill-rule="evenodd" clip-rule="evenodd" d="M0.74707 10.6693C0.74707 5.40142 4.95707 0.654297 10.7671 0.654297C16.4471 0.654297 20.7471 5.31128 20.7471 10.6393C20.7471 16.8185 15.7071 20.6543 10.7471 20.6543C9.10707 20.6543 7.28707 20.2136 5.82707 19.3523C5.31707 19.0419 4.88707 18.8115 4.33707 18.9918L2.31707 19.5927C1.80707 19.7529 1.34707 19.3523 1.49707 18.8115L2.16707 16.5682C2.27707 16.2577 2.25707 15.9272 2.09707 15.6668C1.23707 14.0844 0.74707 12.3518 0.74707 10.6693ZM9.44707 10.6693C9.44707 11.3804 10.0171 11.9512 10.7271 11.9613C11.4371 11.9613 12.0071 11.3804 12.0071 10.6793C12.0071 9.96827 11.4371 9.39741 10.7271 9.39741C10.0271 9.3874 9.44707 9.96827 9.44707 10.6693ZM14.0571 10.6793C14.0571 11.3804 14.6271 11.9613 15.3371 11.9613C16.0471 11.9613 16.6171 11.3804 16.6171 10.6793C16.6171 9.96827 16.0471 9.39741 15.3371 9.39741C14.6271 9.39741 14.0571 9.96827 14.0571 10.6793ZM6.11707 11.9613C5.41707 11.9613 4.83707 11.3804 4.83707 10.6793C4.83707 9.96827 5.40707 9.39741 6.11707 9.39741C6.82707 9.39741 7.39707 9.96827 7.39707 10.6793C7.39707 11.3804 6.82707 11.9512 6.11707 11.9613Z" fill="#41EAD4"/>
</svg>
