<svg width="23" height="27" viewBox="0 0 23 27" fill="none" xmlns="http://www.w3.org/2000/svg">
<path d="M18.947 14.2444C18.9343 12.0822 19.914 10.4526 21.8923 9.25106C20.7858 7.66586 19.1118 6.794 16.9052 6.62597C14.816 6.46111 12.5301 7.8434 11.6931 7.8434C10.8086 7.8434 8.78586 6.68304 7.19433 6.68304C3.9098 6.73376 0.419189 9.30178 0.419189 14.5266C0.419189 16.0706 0.701355 17.6653 1.26569 19.3076C2.02024 21.4698 4.74044 26.7675 7.57794 26.6819C9.06169 26.647 10.1111 25.6293 12.0419 25.6293C13.9156 25.6293 14.8857 26.6819 16.5407 26.6819C19.4035 26.6407 21.8637 21.8248 22.5803 19.6563C18.7409 17.846 18.947 14.3554 18.947 14.2444ZM15.6149 4.57472C17.2223 2.66614 17.0764 0.928767 17.0289 0.304199C15.6086 0.386629 13.9663 1.27117 13.031 2.35862C12.0006 3.52532 11.3951 4.96785 11.5251 6.59426C13.0596 6.71157 14.4609 5.92214 15.6149 4.57472Z" fill="black"/>
</svg>
