<svg width="21" height="21" viewBox="0 0 21 21" fill="none" xmlns="http://www.w3.org/2000/svg">
<path fill-rule="evenodd" clip-rule="evenodd" d="M8.3929 1.9707H13.5346C15.7929 1.9707 17.6179 2.86237 17.6429 5.12904V17.779C17.6429 17.9207 17.6096 18.0624 17.5429 18.1874C17.4346 18.3874 17.2512 18.5374 17.0262 18.604C16.8096 18.6707 16.5679 18.6374 16.3679 18.5207L10.9679 15.8207L5.55957 18.5207C5.4354 18.5865 5.2929 18.629 5.15124 18.629C4.68457 18.629 4.30957 18.2457 4.30957 17.779V5.12904C4.30957 2.86237 6.1429 1.9707 8.3929 1.9707ZM7.82624 8.3207H14.1012C14.4596 8.3207 14.7512 8.0282 14.7512 7.66237C14.7512 7.2957 14.4596 7.00404 14.1012 7.00404H7.82624C7.4679 7.00404 7.17624 7.2957 7.17624 7.66237C7.17624 8.0282 7.4679 8.3207 7.82624 8.3207Z" fill="#051626"/>
</svg>
