<svg width="18" height="18" viewBox="0 0 18 18" fill="none" xmlns="http://www.w3.org/2000/svg">
<path d="M0.666748 14.8332C0.666748 16.2498 1.75008 17.3332 3.16675 17.3332H14.8334C16.2501 17.3332 17.3334 16.2498 17.3334 14.8332V8.1665H0.666748V14.8332ZM14.8334 2.33317H13.1667V1.49984C13.1667 0.999837 12.8334 0.666504 12.3334 0.666504C11.8334 0.666504 11.5001 0.999837 11.5001 1.49984V2.33317H6.50008V1.49984C6.50008 0.999837 6.16675 0.666504 5.66675 0.666504C5.16675 0.666504 4.83341 0.999837 4.83341 1.49984V2.33317H3.16675C1.75008 2.33317 0.666748 3.4165 0.666748 4.83317V6.49984H17.3334V4.83317C17.3334 3.4165 16.2501 2.33317 14.8334 2.33317Z" fill="white"/>
</svg>
