<svg width="19" height="20" viewBox="0 0 19 20" fill="none" xmlns="http://www.w3.org/2000/svg">
<path d="M8.17455 6.3016C7.27375 7.36508 5.3571 9.79365 5.3571 11.1508C5.3571 12.7024 6.62297 13.9683 8.17455 13.9683C9.72614 13.9683 10.992 12.7024 10.992 11.1508C10.992 10.0278 9.55549 7.92856 8.17455 6.3016Z" fill="white"/>
<path d="M17.5397 10.9921H18.7302V7.14289H17.5397V5.97621L18.4881 5.02382L17.873 4.40478L16.6667 5.61112V7.14287H15.4762V10.9921H16.6667V11.8651C16.6667 12.873 15.8492 13.6905 14.8413 13.6905H13.373V4.44445H15.1587V0H1.19047V4.44445H2.97619V16.1508H1.19047V19.127H0V20H16.3492V19.127H15.1587V16.1508H13.373V14.5635H14.8413C16.3294 14.5635 17.5397 13.3532 17.5397 11.8651V10.9921ZM12.5 16.1508H3.8492V4.44449H12.5V16.1508Z" fill="white"/>
</svg>
