<svg width="25" height="25" viewBox="0 0 25 25" fill="none" xmlns="http://www.w3.org/2000/svg">
<path d="M9.76215 3.23462C9.04344 3.23462 8.35416 3.48748 7.84596 3.93756C7.33775 4.38765 7.05225 4.9981 7.05225 5.63462V17.6346C7.05225 18.2711 7.33775 18.8816 7.84596 19.3317C8.35416 19.7818 9.04344 20.0346 9.76215 20.0346H17.8918C18.6106 20.0346 19.2998 19.7818 19.808 19.3317C20.3162 18.8816 20.6017 18.2711 20.6017 17.6346V5.63462C20.6017 4.9981 20.3162 4.38765 19.808 3.93756C19.2998 3.48748 18.6106 3.23462 17.8918 3.23462H9.76215ZM8.4072 5.63462C8.4072 5.31636 8.54995 5.01113 8.80405 4.78609C9.05815 4.56105 9.40279 4.43462 9.76215 4.43462H17.8918C18.2512 4.43462 18.5958 4.56105 18.8499 4.78609C19.104 5.01113 19.2468 5.31636 19.2468 5.63462V17.6346C19.2468 17.9529 19.104 18.2581 18.8499 18.4831C18.5958 18.7082 18.2512 18.8346 17.8918 18.8346H9.76215C9.40279 18.8346 9.05815 18.7082 8.80405 18.4831C8.54995 18.2581 8.4072 17.9529 8.4072 17.6346V5.63462Z" fill="black"/>
<path d="M4.34229 8.0347C4.3423 7.61342 4.46752 7.19957 4.70536 6.83473C4.9432 6.4699 5.28529 6.16694 5.69724 5.9563V18.2347C5.69724 19.0303 6.05412 19.7934 6.68938 20.356C7.32463 20.9186 8.18622 21.2347 9.08461 21.2347H17.5287C17.2908 21.5995 16.9487 21.9025 16.5368 22.1131C16.1249 22.3238 15.6576 22.4347 15.1819 22.4347H9.08461C7.82687 22.4347 6.62064 21.9922 5.73128 21.2045C4.84192 20.4169 4.34229 19.3486 4.34229 18.2347V8.0347Z" fill="black"/>
</svg>
