<svg width="16" height="16" viewBox="0 0 16 16" fill="none" xmlns="http://www.w3.org/2000/svg">
<path d="M0.687095 5.96036C0.685028 6.08705 0.721518 6.21138 0.791726 6.31686C0.861935 6.42234 0.962546 6.50399 1.08022 6.55099L7.08084 8.95161L9.48147 14.9529C9.52784 15.0689 9.60796 15.1684 9.71146 15.2385C9.81496 15.3086 9.9371 15.346 10.0621 15.346H10.0721C10.1987 15.344 10.3217 15.3036 10.4248 15.2302C10.5279 15.1567 10.6063 15.0537 10.6496 14.9347L15.6496 1.18474C15.6905 1.07288 15.6986 0.951652 15.673 0.835337C15.6473 0.719021 15.589 0.612459 15.5048 0.528202C15.4206 0.443944 15.3141 0.385499 15.1978 0.359749C15.0815 0.334 14.9602 0.342019 14.8483 0.382862L1.09834 5.38286C0.979324 5.42626 0.87628 5.50476 0.802847 5.60799C0.729413 5.71122 0.689049 5.83432 0.687095 5.96099V5.96036Z" fill="#41EAD4"/>
</svg>
